<?xml version="1.0" encoding="UTF-8"?>
<svg width="18px" height="18px" viewBox="0 0 18 18" version="1.1" xmlns="http://www.w3.org/2000/svg" xmlns:xlink="http://www.w3.org/1999/xlink">
    <!-- Generator: Sketch 48.2 (47327) - http://www.bohemiancoding.com/sketch -->
    <title>👶🏼</title>
    <desc>Created with Sketch.</desc>
    <defs></defs>
    <g id="Выдача" stroke="none" stroke-width="1" fill="none" fill-rule="evenodd" transform="translate(-233.000000, -44.000000)" font-family="AppleColorEmoji, Apple Color Emoji" font-size="14" font-weight="normal">
        <text id="👶🏼" fill="#000000">
            <tspan x="233" y="59">👶🏼 </tspan>
        </text>
    </g>
</svg>