<?xml version="1.0" encoding="UTF-8"?>
<svg width="23px" height="24px" viewBox="0 0 23 24" version="1.1" xmlns="http://www.w3.org/2000/svg" xmlns:xlink="http://www.w3.org/1999/xlink">
    <!-- Generator: Sketch 48.2 (47327) - http://www.bohemiancoding.com/sketch -->
    <title>arial</title>
    <desc>Created with Sketch.</desc>
    <defs>
        <polygon id="path-1" points="0 0 22.8615175 0 22.8615175 23.9904 0 23.9904"></polygon>
    </defs>
    <g id="Выдача" stroke="none" stroke-width="1" fill="none" fill-rule="evenodd" transform="translate(-276.000000, -235.000000)">
        <g id="arial" transform="translate(276.000000, 235.000000)">
            <mask id="mask-2" fill="white">
                <use xlink:href="#path-1"></use>
            </mask>
            <g id="Clip-2"></g>
            <polyline id="Fill-1" fill="#000000" mask="url(#mask-2)" points="8.02893007 24 22.8615175 1.90608 20.8933287 0 7.82048252 19.76016 1.69427972 12.8624 0 15.04064 8.02893007 24"></polyline>
        </g>
    </g>
</svg>